{
  "app": {
    "title": "LMD Group",
    "headerTitle": "LMD Group",
    "headerColor": "#1843EF",
    "textColor": "white",
    "statusBarColor": "#1843EF",
    "leftButton": "back",
    "statusBar": "normal",
    "actionBarHidden": false,
    "hideAndroidBottomNavigationBar": false,
    "hideIOSSafeAreaBottom": false
  },
  "debug": false,
  "listCSS": [
    "index.css"
  ],
  "listSyncJS": [
    "index.module.js"
  ],
  "listAsyncJS": []
}